[
    {
        "name" : "Regle empirique de Congalton",
        "knowledge_target" : "knn",
        "filter" : "(target.algorithm == 'ball_tree') and (target.n_neighbors > 8) and not process.balance",
        "check" :
            {
                "target" : "dataset.Y",
                "function" : "min_num_echantillons_per_class",
                "attributes" :
                    {
                        "seuil" : 40
                    }
            },
        "message" : "Certaine(s) classe(s) ont trop peu d'echantillons (Minimum 40 echantillons)"
    }
]
